﻿
DisplayName "Pyramid"



EVENT   1
 PAGE   1
  0()



EVENT   2
 PAGE   1
  0()



EVENT   3
 PAGE   1
  0()



EVENT   4
 PAGE   1
  0()



EVENT   5
 PAGE   1
  0()



EVENT   6
 PAGE   1
  0()



EVENT   7
 PAGE   1
  0()



EVENT   8
 PAGE   1
  0()



EVENT   9
 PAGE   1
  0()



EVENT   10
 PAGE   1
  0()



EVENT   11
 PAGE   1
  0()



EVENT   12
 PAGE   1
  0()



EVENT   13
 PAGE   1
  0()



EVENT   14
 PAGE   1
  0()



EVENT   15
 PAGE   1
  250(bytes(0x04,0x08,0x6f,0x3a,0x0c,0x52,0x50,0x47,0x3a,0x3a,0x53,0x45,0x08,0x3a,0x0a,0x40,0x6e,0x61,0x6d,0x65,0x49,0x22,0x09,0x4d,0x6f,0x76,0x65,0x06,0x3a,0x06,0x45,0x54,0x3a,0x0b,0x40,0x70,0x69,0x74,0x63,0x68,0x69,0x69,0x3a,0x0c,0x40,0x76,0x6f,0x6c,0x75,0x6d,0x65,0x69,0x55))
  TeleportPlayer(0,2,77,296,0,0)
  0()



EVENT   16
 PAGE   1
  250(bytes(0x04,0x08,0x6f,0x3a,0x0c,0x52,0x50,0x47,0x3a,0x3a,0x53,0x45,0x08,0x3a,0x0a,0x40,0x6e,0x61,0x6d,0x65,0x49,0x22,0x09,0x4d,0x6f,0x76,0x65,0x06,0x3a,0x06,0x45,0x54,0x3a,0x0b,0x40,0x70,0x69,0x74,0x63,0x68,0x69,0x69,0x3a,0x0c,0x40,0x76,0x6f,0x6c,0x75,0x6d,0x65,0x69,0x55))
  TeleportPlayer(0,2,77,296,0,0)
  0()



EVENT   17
 PAGE   1
  250(bytes(0x04,0x08,0x6f,0x3a,0x0c,0x52,0x50,0x47,0x3a,0x3a,0x53,0x45,0x08,0x3a,0x0a,0x40,0x6e,0x61,0x6d,0x65,0x49,0x22,0x09,0x4d,0x6f,0x76,0x65,0x06,0x3a,0x06,0x45,0x54,0x3a,0x0b,0x40,0x70,0x69,0x74,0x63,0x68,0x69,0x69,0x3a,0x0c,0x40,0x76,0x6f,0x6c,0x75,0x6d,0x65,0x69,0x55))
  TeleportPlayer(0,2,77,296,0,0)
  0()



EVENT   18
 PAGE   1
  ChangeSwitch(100,100,0)
  250(bytes(0x04,0x08,0x6f,0x3a,0x0c,0x52,0x50,0x47,0x3a,0x3a,0x53,0x45,0x08,0x3a,0x0a,0x40,0x6e,0x61,0x6d,0x65,0x49,0x22,0x09,0x4d,0x6f,0x76,0x65,0x06,0x3a,0x06,0x45,0x54,0x3a,0x0b,0x40,0x70,0x69,0x74,0x63,0x68,0x69,0x69,0x3a,0x0c,0x40,0x76,0x6f,0x6c,0x75,0x6d,0x65,0x69,0x55))
  TeleportPlayer(0,114,30,55,0,0)
  0()



EVENT   19
 PAGE   1
  If(2,"A",1)
   ChangeSelfSwitch("A",0)
   ShowMessageFace("sasori_fc1",0,0,2,1)
   ShowMessage("\\n<Scorpion Girl>Hey, did you come here to undertake the Dragon Seal Trial?")
   ShowChoices(strings("That's right","We came for another reason","Just passing by"),0)
   IfPlayerPicksChoice(0,null)
    ShowMessageFace("sasori_fc1",0,0,2,2)
    ShowMessage("\\n<Scorpion Girl>Then you should expect to encounter fierce monsters once you enter the Pyramid. The Mummy Girl's special ability is particularly annoying.")
    0()
   IfPlayerPicksChoice(1,null)
    ShowMessageFace("sasori_fc1",0,0,2,3)
    ShowMessage("\\n<Scorpion Girl>Is that so? But surely you intend to enter the Pyramid regardless, don't you? The Mummy Girl inside of the Pyramid has a particularly annoying ability.")
    0()
   IfPlayerPicksChoice(2,null)
    ShowMessageFace("sasori_fc1",0,0,2,4)
    ShowMessage("\\n<Scorpion Girl>Really? But since you're here, would you consider taking the Trial regardless? The Mummy Girls inside of the Pyramid have a particularly annoying ability, however.")
    0()
   404()
   0()
  EndIf()
  ShowMessageFace("sasori_fc1",0,0,2,5)
  ShowMessage("\\n<Scorpion Girl>If you receive the Mummy Girl's Curse attack, your body will turn to stone. If this happens, you will be prevented from taking any action for the duration of the battle, except for item usage.")
  ShowMessageFace("sasori_fc1",0,0,2,6)
  ShowMessage("\\n<Scorpion Girl>This Gold Needle can release you from her petrification! Buy plenty of them now so you don't regret not buying them later!")
  If(1,1001,0,30,2)
   Shop(0,20,0,0,true)
   0()
  EndIf()
  If(1,1001,0,31,1)
   If(0,2275,1)
    ChangeSwitch(2275,2275,0)
    ShowMessageFace("sasori_fc1",1,0,2,7)
    ShowMessage("\\n<Scorpion Girl>Also...\nI've recently started a scorpion delivery service.")
    ShowMessageFace("ruka_fc1",0,0,2,8)
    ShowMessage("\\n<Luka>You mean you mail scorpions to people?\nThat sounds like harassment to me...")
    ShowMessageFace("sasori_fc1",1,0,2,9)
    ShowMessage("\\n<Scorpion Girl>That's not it! I deliver the customers themselves to the innermost room of the Pyramid.")
    0()
   EndIf()
   ShowChoices(strings("Take me to the innermost room of the Pyramid","I'll buy some gold needles","I don't need anything"),3)
   IfPlayerPicksChoice(0,null)
    ShowMessageFace("sasori_fc1",1,0,2,10)
    ShowMessage("\\n<Scorpion Girl>Then, let's go!")
    ChangeSwitch(100,100,0)
    250(bytes(0x04,0x08,0x6f,0x3a,0x0c,0x52,0x50,0x47,0x3a,0x3a,0x53,0x45,0x08,0x3a,0x0a,0x40,0x6e,0x61,0x6d,0x65,0x49,0x22,0x0e,0x6d,0x6f,0x6e,0x5f,0x75,0x6d,0x61,0x72,0x75,0x06,0x3a,0x06,0x45,0x54,0x3a,0x0b,0x40,0x70,0x69,0x74,0x63,0x68,0x69,0x69,0x3a,0x0c,0x40,0x76,0x6f,0x6c,0x75,0x6d,0x65,0x69,0x55))
    TeleportPlayer(0,117,19,7,2,0)
    EndEventProcessing()
    0()
   IfPlayerPicksChoice(1,null)
    Shop(0,20,0,0,true)
    0()
   IfPlayerPicksChoice(2,null)
    0()
   404()
   0()
  EndIf()
  If(1,1005,0,15,0)
   If(4,66,0)
    If(0,2065,0)
     If(0,2262,1)
      ShowMessageFace("vgirl_fc1",0,0,2,11)
      ShowMessage("\\n<Vanilla>Pleased to meet you. I'm the merchant Vanilla.\nI would like to stock gold needles in my shop, but...")
      ShowMessageFace("sasori_fc1",0,0,2,12)
      ShowMessage("\\n<Scorpion Girl>Certainly, I can't sell anything here at all...\nIf you bought them in bulk, it would save me trouble...")
      ShowMessageFace("",0,0,2,13)
      ShowMessage("The business negotiations proceed forward...")
      ShowMessageFace("sasori_fc1",1,0,2,14)
      ShowMessage("\\n<Scorpion Girl>Then it's settled.\nI'll deliver the needles through your familiars once every month.")
      ShowMessageFace("vgirl_fc1",0,0,2,15)
      ShowMessage("\\n<Vanilla>Thank you!\nI'm looking forward to doing more business with you!")
      ChangeSwitch(2262,2262,0)
      If(0,2263,0)
       249(bytes(0x04,0x08,0x6f,0x3a,0x0c,0x52,0x50,0x47,0x3a,0x3a,0x4d,0x45,0x08,0x3a,0x0a,0x40,0x6e,0x61,0x6d,0x65,0x49,0x22,0x0c,0x66,0x61,0x6e,0x66,0x61,0x6c,0x65,0x06,0x3a,0x06,0x45,0x54,0x3a,0x0b,0x40,0x70,0x69,0x74,0x63,0x68,0x69,0x69,0x3a,0x0c,0x40,0x76,0x6f,0x6c,0x75,0x6d,0x65,0x69,0x69))
       ShowMessageFace("",0,0,2,16)
       ShowMessage("Vanilla can now sell gold needles and grimoire pages at her shop!")
       ChangeVariable(1005,1005,0,0,16)
       ChangeSwitch(2065,2065,1)
       Wait(60)
       EndEventProcessing()
       0()
      Else()
       ShowMessageFace("vgirl_fc1",0,0,2,17)
       ShowMessage("\\n<Vanilla>Next are the grimoire pages!\nI should try negotiating with a book monster... Have we befriended any?")
       EndEventProcessing()
       0()
      EndIf()
      0()
     EndIf()
     0()
    EndIf()
    0()
   EndIf()
   0()
  EndIf()
  0()



EVENT   21
 PAGE   1
  // condition: variable 1001 >= 31
  ChangeSwitch(2275,2275,0)
  205(-1,bytes(0x04,0x08,0x6f,0x3a,0x13,0x52,0x50,0x47,0x3a,0x3a,0x4d,0x6f,0x76,0x65,0x52,0x6f,0x75,0x74,0x65,0x09,0x3a,0x0c,0x40,0x72,0x65,0x70,0x65,0x61,0x74,0x46,0x3a,0x0f,0x40,0x73,0x6b,0x69,0x70,0x70,0x61,0x62,0x6c,0x65,0x46,0x3a,0x0a,0x40,0x77,0x61,0x69,0x74,0x54,0x3a,0x0a,0x40,0x6c,0x69,0x73,0x74,0x5b,0x07,0x6f,0x3a,0x15,0x52,0x50,0x47,0x3a,0x3a,0x4d,0x6f,0x76,0x65,0x43,0x6f,0x6d,0x6d,0x61,0x6e,0x64,0x07,0x3a,0x0a,0x40,0x63,0x6f,0x64,0x65,0x69,0x16,0x3a,0x10,0x40,0x70,0x61,0x72,0x61,0x6d,0x65,0x74,0x65,0x72,0x73,0x5b,0x00,0x6f,0x3b,0x0a,0x07,0x3b,0x0b,0x69,0x00,0x3b,0x0c,0x5b,0x00))
  ShowMessageFace("sasori_fc1",1,0,2,1)
  ShowMessage("\\n<Scorpion Girl>Hey, do you have a moment?\nI've recently started a scorpion delivery service.")
  ShowMessageFace("ruka_fc1",0,0,2,2)
  ShowMessage("\\n<Luka>You mean you mail scorpions to people?\nThat sounds like harassment to me...")
  ShowMessageFace("sasori_fc1",1,0,2,3)
  ShowMessage("\\n<Scorpion Girl>That's not it! I deliver the customers themselves to the innermost room of the Pyramid.")
  ShowMessageFace("sasori_fc1",1,0,2,4)
  ShowMessage("\\n<Scorpion Girl>If you would like to use the service, talk to me. I'll escort you to the innermost room of the Pyramid.")
  EndEventProcessing()
  0()
 PAGE   2
  // condition: switch 2275 is ON
  0()
