﻿


EVENT   1
 PAGE   1
  281(1)
  250(bytes(0x04,0x08,0x6f,0x3a,0x0c,0x52,0x50,0x47,0x3a,0x3a,0x53,0x45,0x08,0x3a,0x0a,0x40,0x6e,0x61,0x6d,0x65,0x49,0x22,0x09,0x4d,0x6f,0x76,0x65,0x06,0x3a,0x06,0x45,0x54,0x3a,0x0b,0x40,0x70,0x69,0x74,0x63,0x68,0x69,0x69,0x3a,0x0c,0x40,0x76,0x6f,0x6c,0x75,0x6d,0x65,0x69,0x55))
  TeleportPlayer(0,514,23,7,0,0)
  0()



EVENT   2
 PAGE   1
  281(1)
  250(bytes(0x04,0x08,0x6f,0x3a,0x0c,0x52,0x50,0x47,0x3a,0x3a,0x53,0x45,0x08,0x3a,0x0a,0x40,0x6e,0x61,0x6d,0x65,0x49,0x22,0x09,0x4d,0x6f,0x76,0x65,0x06,0x3a,0x06,0x45,0x54,0x3a,0x0b,0x40,0x70,0x69,0x74,0x63,0x68,0x69,0x69,0x3a,0x0c,0x40,0x76,0x6f,0x6c,0x75,0x6d,0x65,0x69,0x55))
  TeleportPlayer(0,514,44,23,0,0)
  0()



EVENT   3
 PAGE   1
  0()



EVENT   4
 PAGE   1
  0()



EVENT   5
 PAGE   1
  281(1)
  250(bytes(0x04,0x08,0x6f,0x3a,0x0c,0x52,0x50,0x47,0x3a,0x3a,0x53,0x45,0x08,0x3a,0x0a,0x40,0x6e,0x61,0x6d,0x65,0x49,0x22,0x09,0x4d,0x6f,0x76,0x65,0x06,0x3a,0x06,0x45,0x54,0x3a,0x0b,0x40,0x70,0x69,0x74,0x63,0x68,0x69,0x69,0x3a,0x0c,0x40,0x76,0x6f,0x6c,0x75,0x6d,0x65,0x69,0x55))
  TeleportPlayer(0,514,6,39,0,0)
  0()



EVENT   6
 PAGE   1
  0()



EVENT   7
 PAGE   1
  0()



EVENT   8
 PAGE   1
  250(bytes(0x04,0x08,0x6f,0x3a,0x0c,0x52,0x50,0x47,0x3a,0x3a,0x53,0x45,0x08,0x3a,0x0a,0x40,0x6e,0x61,0x6d,0x65,0x49,0x22,0x09,0x4d,0x6f,0x76,0x65,0x06,0x3a,0x06,0x45,0x54,0x3a,0x0b,0x40,0x70,0x69,0x74,0x63,0x68,0x69,0x69,0x3a,0x0c,0x40,0x76,0x6f,0x6c,0x75,0x6d,0x65,0x69,0x55))
  TeleportPlayer(0,515,28,30,0,0)
  0()



EVENT   9
 PAGE   1
  250(bytes(0x04,0x08,0x6f,0x3a,0x0c,0x52,0x50,0x47,0x3a,0x3a,0x53,0x45,0x08,0x3a,0x0a,0x40,0x6e,0x61,0x6d,0x65,0x49,0x22,0x09,0x4d,0x6f,0x76,0x65,0x06,0x3a,0x06,0x45,0x54,0x3a,0x0b,0x40,0x70,0x69,0x74,0x63,0x68,0x69,0x69,0x3a,0x0c,0x40,0x76,0x6f,0x6c,0x75,0x6d,0x65,0x69,0x55))
  TeleportPlayer(0,515,29,30,0,0)
  0()



EVENT   10
 PAGE   1
  250(bytes(0x04,0x08,0x6f,0x3a,0x0c,0x52,0x50,0x47,0x3a,0x3a,0x53,0x45,0x08,0x3a,0x0a,0x40,0x6e,0x61,0x6d,0x65,0x49,0x22,0x09,0x4d,0x6f,0x76,0x65,0x06,0x3a,0x06,0x45,0x54,0x3a,0x0b,0x40,0x70,0x69,0x74,0x63,0x68,0x69,0x69,0x3a,0x0c,0x40,0x76,0x6f,0x6c,0x75,0x6d,0x65,0x69,0x55))
  TeleportPlayer(0,515,28,5,0,0)
  0()



EVENT   11
 PAGE   1
  250(bytes(0x04,0x08,0x6f,0x3a,0x0c,0x52,0x50,0x47,0x3a,0x3a,0x53,0x45,0x08,0x3a,0x0a,0x40,0x6e,0x61,0x6d,0x65,0x49,0x22,0x09,0x4d,0x6f,0x76,0x65,0x06,0x3a,0x06,0x45,0x54,0x3a,0x0b,0x40,0x70,0x69,0x74,0x63,0x68,0x69,0x69,0x3a,0x0c,0x40,0x76,0x6f,0x6c,0x75,0x6d,0x65,0x69,0x55))
  TeleportPlayer(0,515,29,5,0,0)
  0()



EVENT   12
 PAGE   1
  281(1)
  250(bytes(0x04,0x08,0x6f,0x3a,0x0c,0x52,0x50,0x47,0x3a,0x3a,0x53,0x45,0x08,0x3a,0x0a,0x40,0x6e,0x61,0x6d,0x65,0x49,0x22,0x09,0x4d,0x6f,0x76,0x65,0x06,0x3a,0x06,0x45,0x54,0x3a,0x0b,0x40,0x70,0x69,0x74,0x63,0x68,0x69,0x69,0x3a,0x0c,0x40,0x76,0x6f,0x6c,0x75,0x6d,0x65,0x69,0x55))
  TeleportPlayer(0,514,26,42,0,0)
  0()



EVENT   13
 PAGE   1
  281(1)
  250(bytes(0x04,0x08,0x6f,0x3a,0x0c,0x52,0x50,0x47,0x3a,0x3a,0x53,0x45,0x08,0x3a,0x0a,0x40,0x6e,0x61,0x6d,0x65,0x49,0x22,0x09,0x4d,0x6f,0x76,0x65,0x06,0x3a,0x06,0x45,0x54,0x3a,0x0b,0x40,0x70,0x69,0x74,0x63,0x68,0x69,0x69,0x3a,0x0c,0x40,0x76,0x6f,0x6c,0x75,0x6d,0x65,0x69,0x55))
  TeleportPlayer(0,514,35,45,0,0)
  0()



EVENT   14
 PAGE   1
  0()



EVENT   15
 PAGE   1
  0()



EVENT   16
 PAGE   1
  281(1)
  250(bytes(0x04,0x08,0x6f,0x3a,0x0c,0x52,0x50,0x47,0x3a,0x3a,0x53,0x45,0x08,0x3a,0x0a,0x40,0x6e,0x61,0x6d,0x65,0x49,0x22,0x09,0x4d,0x6f,0x76,0x65,0x06,0x3a,0x06,0x45,0x54,0x3a,0x0b,0x40,0x70,0x69,0x74,0x63,0x68,0x69,0x69,0x3a,0x0c,0x40,0x76,0x6f,0x6c,0x75,0x6d,0x65,0x69,0x55))
  TeleportPlayer(0,514,24,52,0,0)
  0()



EVENT   17
 PAGE   1
  0()



EVENT   18
 PAGE   1
  281(1)
  250(bytes(0x04,0x08,0x6f,0x3a,0x0c,0x52,0x50,0x47,0x3a,0x3a,0x53,0x45,0x08,0x3a,0x0a,0x40,0x6e,0x61,0x6d,0x65,0x49,0x22,0x09,0x4d,0x6f,0x76,0x65,0x06,0x3a,0x06,0x45,0x54,0x3a,0x0b,0x40,0x70,0x69,0x74,0x63,0x68,0x69,0x69,0x3a,0x0c,0x40,0x76,0x6f,0x6c,0x75,0x6d,0x65,0x69,0x55))
  TeleportPlayer(0,514,45,51,0,0)
  0()



EVENT   19
 PAGE   1
  ShowMessageFace("",0,0,2,1)
  ShowMessage("\\n<Accessory-selling Girl>To fight against succubi, you need to protect yourself against pleasure-based status ailments. That's why we have these accessories!")
  Shop(2,1581,0,0,false)
  605(2,1583,0,0)
  605(2,1585,0,0)
  605(2,1587,0,0)
  605(2,1589,0,0)
  0()



EVENT   20
 PAGE   1
  ShowMessageFace("",0,0,2,1)
  ShowMessage("\\n<Old Man's Tool Shop>Welcome to the Old Man's Tool Shop!\nThis shopkeeper might be worn out, but his items are first-class!")
  Shop(0,2,0,0,false)
  605(0,7,0,0)
  605(0,11,0,0)
  605(0,13,0,0)
  605(0,14,0,0)
  605(0,15,0,0)
  605(0,16,0,0)
  605(0,17,0,0)
  605(0,18,0,0)
  605(0,19,0,0)
  605(0,20,0,0)
  605(0,21,0,0)
  605(0,23,0,0)
  605(0,35,0,0)
  0()



EVENT   21
 PAGE   1
  281(1)
  250(bytes(0x04,0x08,0x6f,0x3a,0x0c,0x52,0x50,0x47,0x3a,0x3a,0x53,0x45,0x08,0x3a,0x0a,0x40,0x6e,0x61,0x6d,0x65,0x49,0x22,0x09,0x4d,0x6f,0x76,0x65,0x06,0x3a,0x06,0x45,0x54,0x3a,0x0b,0x40,0x70,0x69,0x74,0x63,0x68,0x69,0x69,0x3a,0x0c,0x40,0x76,0x6f,0x6c,0x75,0x6d,0x65,0x69,0x55))
  TeleportPlayer(0,514,41,11,0,0)
  0()



EVENT   22
 PAGE   1
  281(1)
  250(bytes(0x04,0x08,0x6f,0x3a,0x0c,0x52,0x50,0x47,0x3a,0x3a,0x53,0x45,0x08,0x3a,0x0a,0x40,0x6e,0x61,0x6d,0x65,0x49,0x22,0x09,0x4d,0x6f,0x76,0x65,0x06,0x3a,0x06,0x45,0x54,0x3a,0x0b,0x40,0x70,0x69,0x74,0x63,0x68,0x69,0x69,0x3a,0x0c,0x40,0x76,0x6f,0x6c,0x75,0x6d,0x65,0x69,0x55))
  TeleportPlayer(0,515,19,95,2,0)
  0()



EVENT   23
 PAGE   1
  281(1)
  250(bytes(0x04,0x08,0x6f,0x3a,0x0c,0x52,0x50,0x47,0x3a,0x3a,0x53,0x45,0x08,0x3a,0x0a,0x40,0x6e,0x61,0x6d,0x65,0x49,0x22,0x09,0x4d,0x6f,0x76,0x65,0x06,0x3a,0x06,0x45,0x54,0x3a,0x0b,0x40,0x70,0x69,0x74,0x63,0x68,0x69,0x69,0x3a,0x0c,0x40,0x76,0x6f,0x6c,0x75,0x6d,0x65,0x69,0x55))
  TeleportPlayer(0,515,60,67,2,0)
  0()



EVENT   24
 PAGE   1
  281(1)
  250(bytes(0x04,0x08,0x6f,0x3a,0x0c,0x52,0x50,0x47,0x3a,0x3a,0x53,0x45,0x08,0x3a,0x0a,0x40,0x6e,0x61,0x6d,0x65,0x49,0x22,0x09,0x4d,0x6f,0x76,0x65,0x06,0x3a,0x06,0x45,0x54,0x3a,0x0b,0x40,0x70,0x69,0x74,0x63,0x68,0x69,0x69,0x3a,0x0c,0x40,0x76,0x6f,0x6c,0x75,0x6d,0x65,0x69,0x55))
  TeleportPlayer(0,515,60,67,2,0)
  0()



EVENT   25
 PAGE   1
  281(1)
  250(bytes(0x04,0x08,0x6f,0x3a,0x0c,0x52,0x50,0x47,0x3a,0x3a,0x53,0x45,0x08,0x3a,0x0a,0x40,0x6e,0x61,0x6d,0x65,0x49,0x22,0x09,0x4d,0x6f,0x76,0x65,0x06,0x3a,0x06,0x45,0x54,0x3a,0x0b,0x40,0x70,0x69,0x74,0x63,0x68,0x69,0x69,0x3a,0x0c,0x40,0x76,0x6f,0x6c,0x75,0x6d,0x65,0x69,0x55))
  TeleportPlayer(0,515,60,67,2,0)
  0()



EVENT   26
 PAGE   1
  217()
  241(bytes(0x04,0x08,0x6f,0x3a,0x0d,0x52,0x50,0x47,0x3a,0x3a,0x42,0x47,0x4d,0x08,0x3a,0x0a,0x40,0x6e,0x61,0x6d,0x65,0x49,0x22,0x0a,0x62,0x6f,0x73,0x73,0x30,0x06,0x3a,0x06,0x45,0x54,0x3a,0x0c,0x40,0x76,0x6f,0x6c,0x75,0x6d,0x65,0x69,0x69,0x3a,0x0b,0x40,0x70,0x69,0x74,0x63,0x68,0x69,0x69))
  PictureDisplay(5,"80_lilith_st01",0,0,0,0,100,100,0,0)
  PictureMove(5,null,0,0,0,0,100,100,255,0,60,true)
  ShowMessageFace("lilith_fc1",0,0,2,1)
  ShowMessage("\\n<Lilith>Oh, you came in alone?\nWe were expecting a big crowd of soldiers.")
  ShowMessageFace("lilith_fc1",0,0,2,2)
  ShowMessage("\\n<Lilim>That's a pity, sister.\nI was looking forward to lots of semen...")
  ShowMessageFace("lilith_fc1",0,0,2,3)
  ShowMessage("\\n<Lilith>Take a better look, Lilim.\nThat hero's semen will be far more satisfying than the semen from a bunch of soldiers.")
  ShowMessageFace("lilith_fc1",0,0,2,4)
  ShowMessage("\\n<Lilim>Sister, do you think he's the Hero Heinrich we've heard so much about? He looks even younger than the rumors suggested.")
  ShowChoices(strings("I am the Hero Heinrich!","I am the Hero Luka!"),0)
  IfPlayerPicksChoice(0,null)
   ShowMessageFace("ruka_fc1",0,0,2,5)
   ShowMessage("\\n<Luka>I am the Hero Heinrich!")
   If(0,6,0)
    ShowMessageFace("sonia_fc3",2,0,2,6)
    ShowMessage("\\n<Sonya>The hell you are!")
    0()
   Else()
    If(0,4,0)
     ShowMessageFace("alice_fc5",5,0,2,7)
     ShowMessage("\\n<Alice>No, he really isn't.")
     0()
    EndIf()
    If(0,5,0)
     ShowMessageFace("iriasu_fc4",2,0,2,8)
     ShowMessage("\\n<Ilias>He really is not.")
     0()
    EndIf()
    0()
   EndIf()
   ShowMessageFace("lilith_fc1",0,0,2,9)
   ShowMessage("\\n<Lilith>It appears you were mistaken, Lilim.")
   0()
  IfPlayerPicksChoice(1,null)
   ShowMessageFace("ruka_fc1",0,0,2,10)
   ShowMessage("\\n<Luka>I am the Hero Luka!")
   ShowMessageFace("lilith_fc1",0,0,2,11)
   ShowMessage("\\n<Lilith>Luka? That's a name unfamiliar to us.")
   0()
  404()
  ShowMessageFace("lilith_fc1",0,0,2,12)
  ShowMessage("\\n<Lilim>But this hero's semen is just as good.\nI'm looking forward to this, sister.")
  If(0,4,0)
   ShowMessageFace("alice_fc5",2,0,2,13)
   ShowMessage("\\n<Alice>Black Alice's trusted confidants, the famous Lilith and Lilim? It's strange to square off against monsters I've read about in history books.")
   0()
  EndIf()
  If(0,5,0)
   ShowMessageFace("iriasu_fc4",7,0,2,14)
   ShowMessage("\\n<Ilias>Stay sharp, Luka.\nThese sisters were famous for being Black Alice's trusted confidants.")
   0()
  EndIf()
  ShowMessageFace("ruka_fc1",0,0,2,15)
  ShowMessage("\\n<Luka>I'm fighting the same foes that the Legendary Heinrich once fought. Oh man, this is so exciting!")
  ShowMessageFace("lilith_fc1",0,0,2,16)
  ShowMessage("\\n<Lilith>I'm getting rather excited myself.\nHow about you, Lilim?")
  ShowMessageFace("lilith_fc1",0,0,2,17)
  ShowMessage("\\n<Lilim>Oh yes, sister.\nUfufu, let's show him a whole new world of pleasure. ♪")
  If(4,286,0)
   ShowMessageFace("witchs_fc1",1,0,2,18)
   ShowMessage("\\n<Witch>I can't believe I'm fighting these succubus sisters. I'm so glad I came along. ♪")
   0()
  EndIf()
  If(4,341,0)
   ShowMessageFace("lilith_fc1",0,0,2,19)
   ShowMessage("\\n<Lilith'>This is such a weird feeling...\nWe're over there, and yet here too...")
   ShowMessageFace("lilith_fc1",0,0,2,20)
   ShowMessage("\\n<Lilim'>I bet we'd get along great.\nLet's all four play together, sister.")
   ShowMessageFace("lilith_fc1",0,0,2,21)
   ShowMessage("\\n<Lilith>Now this is a mystery. It's like looking into a mirror.")
   ShowMessageFace("lilith_fc1",0,0,2,22)
   ShowMessage("\\n<Lilim>Is this one of her tricks, perhaps?\nHave we gotten lost in wonderland?")
   0()
  EndIf()
  PictureClear(5)
  SetBattleBGM(bytes(0x04,0x08,0x6f,0x3a,0x0d,0x52,0x50,0x47,0x3a,0x3a,0x42,0x47,0x4d,0x08,0x3a,0x0a,0x40,0x6e,0x61,0x6d,0x65,0x49,0x22,0x0a,0x62,0x6f,0x73,0x73,0x31,0x06,0x3a,0x06,0x45,0x54,0x3a,0x0c,0x40,0x76,0x6f,0x6c,0x75,0x6d,0x65,0x69,0x69,0x3a,0x0b,0x40,0x70,0x69,0x74,0x63,0x68,0x69,0x69))
  ChangeSwitch(22,22,0)
  Battle(0,769,false,false)
  ChangeSwitch(22,22,1)
  SetBattleBGM(bytes(0x04,0x08,0x6f,0x3a,0x0d,0x52,0x50,0x47,0x3a,0x3a,0x42,0x47,0x4d,0x08,0x3a,0x0a,0x40,0x6e,0x61,0x6d,0x65,0x49,0x22,0x0b,0x62,0x61,0x74,0x74,0x6c,0x65,0x06,0x3a,0x06,0x45,0x54,0x3a,0x0c,0x40,0x76,0x6f,0x6c,0x75,0x6d,0x65,0x69,0x69,0x3a,0x0b,0x40,0x70,0x69,0x74,0x63,0x68,0x69,0x69))
  241(bytes(0x04,0x08,0x6f,0x3a,0x0d,0x52,0x50,0x47,0x3a,0x3a,0x42,0x47,0x4d,0x08,0x3a,0x0a,0x40,0x6e,0x61,0x6d,0x65,0x49,0x22,0x0a,0x6b,0x69,0x6b,0x69,0x32,0x06,0x3a,0x06,0x45,0x54,0x3a,0x0c,0x40,0x76,0x6f,0x6c,0x75,0x6d,0x65,0x69,0x69,0x3a,0x0b,0x40,0x70,0x69,0x74,0x63,0x68,0x69,0x69))
  314(0,0)
  PictureDisplay(5,"80_lilith_st03",0,0,0,0,100,100,0,0)
  PictureMove(5,null,0,0,0,0,100,100,255,0,30,true)
  If(4,288,0)
   ShowMessageFace("d_succubus_fc1",0,0,2,23)
   ShowMessage("\\n<Natasha>It looks like we came out on top.")
   0()
  EndIf()
  ShowMessageFace("lilith_fc1",2,0,2,24)
  ShowMessage("\\n<Lilim>Ah, sister...\nThis hero is rather strong.")
  ShowMessageFace("lilith_fc1",2,0,2,25)
  ShowMessage("\\n<Lilith>We shall lose at this rate.\nLet's withdraw, Lilim...")
  PictureClear(5)
  Wait(60)
  250(bytes(0x04,0x08,0x6f,0x3a,0x0c,0x52,0x50,0x47,0x3a,0x3a,0x53,0x45,0x08,0x3a,0x0a,0x40,0x6e,0x61,0x6d,0x65,0x49,0x22,0x0d,0x6d,0x6f,0x6e,0x5f,0x77,0x61,0x72,0x70,0x06,0x3a,0x06,0x45,0x54,0x3a,0x0b,0x40,0x70,0x69,0x74,0x63,0x68,0x69,0x69,0x3a,0x0c,0x40,0x76,0x6f,0x6c,0x75,0x6d,0x65,0x69,0x55))
  ChangeVariable(1069,1069,0,0,3)
  ShowMessageFace("",0,0,2,26)
  ShowMessage("Lilith and Lilim disappear!")
  241(bytes(0x04,0x08,0x6f,0x3a,0x0d,0x52,0x50,0x47,0x3a,0x3a,0x42,0x47,0x4d,0x08,0x3a,0x0a,0x40,0x6e,0x61,0x6d,0x65,0x49,0x22,0x14,0x73,0x63,0x65,0x6e,0x65,0x5f,0x65,0x70,0x69,0x6c,0x6f,0x67,0x75,0x65,0x32,0x06,0x3a,0x06,0x45,0x54,0x3a,0x0c,0x40,0x76,0x6f,0x6c,0x75,0x6d,0x65,0x69,0x69,0x3a,0x0b,0x40,0x70,0x69,0x74,0x63,0x68,0x69,0x69))
  If(0,4,0)
   ShowMessageFace("alice_fc5",0,0,2,27)
   ShowMessage("\\n<Alice>Damn, well we managed to repel them at least.\nConsidering the damage they took, I doubt they'll cause any trouble for a while.")
   0()
  EndIf()
  If(0,5,0)
   ShowMessageFace("iriasu_fc4",1,0,2,28)
   ShowMessage("\\n<Ilias>You can run, but you cannot hide, filthy monsters. We shall chase you down no matter how far you flee.")
   0()
  EndIf()
  If(4,203,0)
   ShowMessageFace("tatunoko_k_fc1",1,0,2,29)
   ShowMessage("\\n<Tatsuko>We protected the village!")
   0()
  EndIf()
  Wait(30)
  ShowMessageFace("",0,0,2,30)
  ShowMessage("\\n<？？？>Hellooooo! Anyone still alive down here?")
  ShowMessageFace("ruka_fc1",0,0,2,31)
  ShowMessage("\\n<Luka>Hmm?")
  205(-1,bytes(0x04,0x08,0x6f,0x3a,0x13,0x52,0x50,0x47,0x3a,0x3a,0x4d,0x6f,0x76,0x65,0x52,0x6f,0x75,0x74,0x65,0x09,0x3a,0x0c,0x40,0x72,0x65,0x70,0x65,0x61,0x74,0x46,0x3a,0x0f,0x40,0x73,0x6b,0x69,0x70,0x70,0x61,0x62,0x6c,0x65,0x46,0x3a,0x0a,0x40,0x77,0x61,0x69,0x74,0x54,0x3a,0x0a,0x40,0x6c,0x69,0x73,0x74,0x5b,0x07,0x6f,0x3a,0x15,0x52,0x50,0x47,0x3a,0x3a,0x4d,0x6f,0x76,0x65,0x43,0x6f,0x6d,0x6d,0x61,0x6e,0x64,0x07,0x3a,0x0a,0x40,0x63,0x6f,0x64,0x65,0x69,0x15,0x3a,0x10,0x40,0x70,0x61,0x72,0x61,0x6d,0x65,0x74,0x65,0x72,0x73,0x5b,0x00,0x6f,0x3b,0x0a,0x07,0x3b,0x0b,0x69,0x00,0x3b,0x0c,0x5b,0x00))
  ChangeSwitch(31,31,0)
  205(27,bytes(0x04,0x08,0x6f,0x3a,0x13,0x52,0x50,0x47,0x3a,0x3a,0x4d,0x6f,0x76,0x65,0x52,0x6f,0x75,0x74,0x65,0x09,0x3a,0x0c,0x40,0x72,0x65,0x70,0x65,0x61,0x74,0x46,0x3a,0x0f,0x40,0x73,0x6b,0x69,0x70,0x70,0x61,0x62,0x6c,0x65,0x46,0x3a,0x0a,0x40,0x77,0x61,0x69,0x74,0x46,0x3a,0x0a,0x40,0x6c,0x69,0x73,0x74,0x5b,0x0d,0x6f,0x3a,0x15,0x52,0x50,0x47,0x3a,0x3a,0x4d,0x6f,0x76,0x65,0x43,0x6f,0x6d,0x6d,0x61,0x6e,0x64,0x07,0x3a,0x0a,0x40,0x63,0x6f,0x64,0x65,0x69,0x09,0x3a,0x10,0x40,0x70,0x61,0x72,0x61,0x6d,0x65,0x74,0x65,0x72,0x73,0x5b,0x00,0x6f,0x3b,0x0a,0x07,0x3b,0x0b,0x69,0x09,0x3b,0x0c,0x5b,0x00,0x6f,0x3b,0x0a,0x07,0x3b,0x0b,0x69,0x09,0x3b,0x0c,0x5b,0x00,0x6f,0x3b,0x0a,0x07,0x3b,0x0b,0x69,0x09,0x3b,0x0c,0x5b,0x00,0x6f,0x3b,0x0a,0x07,0x3b,0x0b,0x69,0x09,0x3b,0x0c,0x5b,0x00,0x6f,0x3b,0x0a,0x07,0x3b,0x0b,0x69,0x09,0x3b,0x0c,0x5b,0x00,0x6f,0x3b,0x0a,0x07,0x3b,0x0b,0x69,0x09,0x3b,0x0c,0x5b,0x00,0x6f,0x3b,0x0a,0x07,0x3b,0x0b,0x69,0x00,0x3b,0x0c,0x5b,0x00))
  205(28,bytes(0x04,0x08,0x6f,0x3a,0x13,0x52,0x50,0x47,0x3a,0x3a,0x4d,0x6f,0x76,0x65,0x52,0x6f,0x75,0x74,0x65,0x09,0x3a,0x0c,0x40,0x72,0x65,0x70,0x65,0x61,0x74,0x46,0x3a,0x0f,0x40,0x73,0x6b,0x69,0x70,0x70,0x61,0x62,0x6c,0x65,0x46,0x3a,0x0a,0x40,0x77,0x61,0x69,0x74,0x54,0x3a,0x0a,0x40,0x6c,0x69,0x73,0x74,0x5b,0x0d,0x6f,0x3a,0x15,0x52,0x50,0x47,0x3a,0x3a,0x4d,0x6f,0x76,0x65,0x43,0x6f,0x6d,0x6d,0x61,0x6e,0x64,0x07,0x3a,0x0a,0x40,0x63,0x6f,0x64,0x65,0x69,0x09,0x3a,0x10,0x40,0x70,0x61,0x72,0x61,0x6d,0x65,0x74,0x65,0x72,0x73,0x5b,0x00,0x6f,0x3b,0x0a,0x07,0x3b,0x0b,0x69,0x09,0x3b,0x0c,0x5b,0x00,0x6f,0x3b,0x0a,0x07,0x3b,0x0b,0x69,0x09,0x3b,0x0c,0x5b,0x00,0x6f,0x3b,0x0a,0x07,0x3b,0x0b,0x69,0x09,0x3b,0x0c,0x5b,0x00,0x6f,0x3b,0x0a,0x07,0x3b,0x0b,0x69,0x09,0x3b,0x0c,0x5b,0x00,0x6f,0x3b,0x0a,0x07,0x3b,0x0b,0x69,0x09,0x3b,0x0c,0x5b,0x00,0x6f,0x3b,0x0a,0x07,0x3b,0x0b,0x69,0x09,0x3b,0x0c,0x5b,0x00,0x6f,0x3b,0x0a,0x07,0x3b,0x0b,0x69,0x00,0x3b,0x0c,0x5b,0x00))
  PictureDisplay(5,"80_heinrich_st02",0,0,0,0,100,100,0,0)
  PictureMove(5,null,0,0,0,0,100,100,255,0,60,true)
  ShowMessageFace("heinrich_fc1",1,0,2,32)
  ShowMessage("\\n<？？？>I was told that a passing hero came down here to deal with Lilith and her sister. I hurried as fast as I could, but it looks like I wasn't needed after all.")
  ShowMessageFace("heinrich_fc1",1,0,2,33)
  ShowMessage("\\n<？？？>I'm really surprised you managed to beat the Queen Succubi, though...")
  ShowMessageFace("ruka_fc1",0,0,2,34)
  ShowMessage("\\n<Luka>N-No way...\nY-Y-You're...")
  ShowMessageFace("heinrich_fc1",1,0,2,35)
  ShowMessage("\\n<Heinrich>I'm Heinrich, the hero who's going to defeat the Monster Lord.")
  If(4,202,0)
   ShowMessageFace("bonny_fc1",0,0,2,36)
   ShowMessage("\\n<Bonnie>Seriously?!")
   0()
  EndIf()
  ShowMessageFace("ruka_fc1",0,0,2,37)
  ShowMessage("\\n<Luka>O-O-Oh my gosh... It-It's really you...\nI... I'm Lu-Lu-Luka...")
  PictureDisplay(5,"80_heinrich_st01",0,0,0,0,100,100,255,0)
  ShowMessageFace("heinrich_fc1",7,0,2,38)
  ShowMessage("\\n<Heinrich>Lululuka? Weird name you've got...\nAh, forgive my rudeness. Pleased to make your acquaintance, Hero Lululuka.")
  241(bytes(0x04,0x08,0x6f,0x3a,0x0d,0x52,0x50,0x47,0x3a,0x3a,0x42,0x47,0x4d,0x08,0x3a,0x0a,0x40,0x6e,0x61,0x6d,0x65,0x49,0x22,0x0a,0x6b,0x69,0x6b,0x69,0x32,0x06,0x3a,0x06,0x45,0x54,0x3a,0x0c,0x40,0x76,0x6f,0x6c,0x75,0x6d,0x65,0x69,0x69,0x3a,0x0b,0x40,0x70,0x69,0x74,0x63,0x68,0x69,0x69))
  PictureDisplay(5,"80_heinrich_st01",0,0,-150,0,100,100,255,0)
  PictureDisplay(6,"80_alicetromeria_st01",0,0,150,0,100,100,255,0)
  ShowMessageFace("alicetromeria_fc1",0,0,2,39)
  ShowMessage("\\n<？？？>Ufufu, what an interesting hero...")
  ShowMessageFace("heinrich_fc1",7,0,2,40)
  ShowMessage("\\n<Heinrich>Oh, I almost forgot. This is the mage Alicetroemeria. She's my traveling companion.")
  PictureDisplay(6,"80_alicetromeria_st04",0,0,150,0,100,100,255,0)
  ShowMessageFace("alicetromeria_fc1",3,0,2,41)
  ShowMessage("\\n<Alicetroemeria>That's me! Pleased to meet all of you very wondrous people...")
  If(0,4,0)
   ShowMessageFace("alice_fc6",0,0,2,42)
   ShowMessage("\\n<Alice>No, you can't be...")
   PictureDisplay(6,"80_alicetromeria_st05",0,0,150,0,100,100,255,0)
   ShowMessageFace("alicetromeria_fc1",4,0,2,43)
   ShowMessage("\\n<Alicetroemeria>Oh? I feel a close bond between us. Are we related somehow, perchance? Ufufu.")
   0()
  EndIf()
  If(0,5,0)
   ShowMessageFace("iriasu_fc4",7,0,2,44)
   ShowMessage("\\n<Ilias>.........")
   PictureDisplay(6,"80_alicetromeria_st05",0,0,150,0,100,100,255,0)
   ShowMessageFace("alicetromeria_fc1",4,0,2,45)
   ShowMessage("\\n<Alicetroemeria>Oh, how unusual to see an angel on the surface.\nAre you lost, little angel? Ufufu...")
   0()
  EndIf()
  241(bytes(0x04,0x08,0x6f,0x3a,0x0d,0x52,0x50,0x47,0x3a,0x3a,0x42,0x47,0x4d,0x08,0x3a,0x0a,0x40,0x6e,0x61,0x6d,0x65,0x49,0x22,0x14,0x73,0x63,0x65,0x6e,0x65,0x5f,0x65,0x70,0x69,0x6c,0x6f,0x67,0x75,0x65,0x32,0x06,0x3a,0x06,0x45,0x54,0x3a,0x0c,0x40,0x76,0x6f,0x6c,0x75,0x6d,0x65,0x69,0x69,0x3a,0x0b,0x40,0x70,0x69,0x74,0x63,0x68,0x69,0x69))
  PictureDisplay(5,"80_heinrich_st02",0,0,-150,0,100,100,255,0)
  PictureDisplay(6,"80_alicetromeria_st01",0,0,150,0,100,100,255,0)
  ShowMessageFace("heinrich_fc1",1,0,2,46)
  ShowMessage("\\n<Heinrich>Well, let's not stand around here talking.\nWe're heading back to the inn.")
  ShowMessageFace("heinrich_fc1",1,0,2,47)
  ShowMessage("\\n<Heinrich>There's only one inn in this village, so we'll all be staying in the same place. It'll be fun to swap stories of our adventures.")
  ShowMessageFace("ruka_fc1",0,0,2,48)
  ShowMessage("\\n<Luka>I-I-I'd be honored...")
  PictureDisplay(5,"80_heinrich_st01",0,0,-150,0,100,100,255,0)
  ShowMessageFace("heinrich_fc1",7,0,2,49)
  ShowMessage("\\n<Heinrich>Come on, you don't have to be so formal.\nAll that shining star of hope stuff is way over exaggerated.")
  ShowMessageFace("alicetromeria_fc1",0,0,2,50)
  ShowMessage("\\n<Alicetroemeria>Ufufu, Hero Lululuka...\nYou're very interesting...")
  If(0,4,0)
   ShowMessageFace("alice_fc5",0,0,2,51)
   ShowMessage("\\n<Alice>.........")
   0()
  EndIf()
  If(0,5,0)
   ShowMessageFace("iriasu_fc4",7,0,2,52)
   ShowMessage("\\n<Ilias>.........")
   0()
  EndIf()
  ShowMessageFace("heinrich_fc1",7,0,2,53)
  ShowMessage("\\n<Heinrich>All right, hope to see you at the inn later.")
  PictureClear(5)
  PictureClear(6)
  Wait(60)
  205(27,bytes(0x04,0x08,0x6f,0x3a,0x13,0x52,0x50,0x47,0x3a,0x3a,0x4d,0x6f,0x76,0x65,0x52,0x6f,0x75,0x74,0x65,0x09,0x3a,0x0c,0x40,0x72,0x65,0x70,0x65,0x61,0x74,0x46,0x3a,0x0f,0x40,0x73,0x6b,0x69,0x70,0x70,0x61,0x62,0x6c,0x65,0x46,0x3a,0x0a,0x40,0x77,0x61,0x69,0x74,0x54,0x3a,0x0a,0x40,0x6c,0x69,0x73,0x74,0x5b,0x08,0x6f,0x3a,0x15,0x52,0x50,0x47,0x3a,0x3a,0x4d,0x6f,0x76,0x65,0x43,0x6f,0x6d,0x6d,0x61,0x6e,0x64,0x07,0x3a,0x0a,0x40,0x63,0x6f,0x64,0x65,0x69,0x06,0x3a,0x10,0x40,0x70,0x61,0x72,0x61,0x6d,0x65,0x74,0x65,0x72,0x73,0x5b,0x00,0x6f,0x3b,0x0a,0x07,0x3b,0x0b,0x69,0x06,0x3b,0x0c,0x5b,0x00,0x6f,0x3b,0x0a,0x07,0x3b,0x0b,0x69,0x00,0x3b,0x0c,0x5b,0x00))
  205(27,bytes(0x04,0x08,0x6f,0x3a,0x13,0x52,0x50,0x47,0x3a,0x3a,0x4d,0x6f,0x76,0x65,0x52,0x6f,0x75,0x74,0x65,0x09,0x3a,0x0c,0x40,0x72,0x65,0x70,0x65,0x61,0x74,0x46,0x3a,0x0f,0x40,0x73,0x6b,0x69,0x70,0x70,0x61,0x62,0x6c,0x65,0x46,0x3a,0x0a,0x40,0x77,0x61,0x69,0x74,0x46,0x3a,0x0a,0x40,0x6c,0x69,0x73,0x74,0x5b,0x10,0x6f,0x3a,0x15,0x52,0x50,0x47,0x3a,0x3a,0x4d,0x6f,0x76,0x65,0x43,0x6f,0x6d,0x6d,0x61,0x6e,0x64,0x07,0x3a,0x0a,0x40,0x63,0x6f,0x64,0x65,0x69,0x06,0x3a,0x10,0x40,0x70,0x61,0x72,0x61,0x6d,0x65,0x74,0x65,0x72,0x73,0x5b,0x00,0x6f,0x3b,0x0a,0x07,0x3b,0x0b,0x69,0x06,0x3b,0x0c,0x5b,0x00,0x6f,0x3b,0x0a,0x07,0x3b,0x0b,0x69,0x06,0x3b,0x0c,0x5b,0x00,0x6f,0x3b,0x0a,0x07,0x3b,0x0b,0x69,0x06,0x3b,0x0c,0x5b,0x00,0x6f,0x3b,0x0a,0x07,0x3b,0x0b,0x69,0x06,0x3b,0x0c,0x5b,0x00,0x6f,0x3b,0x0a,0x07,0x3b,0x0b,0x69,0x06,0x3b,0x0c,0x5b,0x00,0x6f,0x3b,0x0a,0x07,0x3b,0x0b,0x69,0x06,0x3b,0x0c,0x5b,0x00,0x6f,0x3b,0x0a,0x07,0x3b,0x0b,0x69,0x06,0x3b,0x0c,0x5b,0x00,0x6f,0x3b,0x0a,0x07,0x3b,0x0b,0x69,0x06,0x3b,0x0c,0x5b,0x00,0x6f,0x3b,0x0a,0x07,0x3b,0x0b,0x69,0x06,0x3b,0x0c,0x5b,0x00,0x6f,0x3b,0x0a,0x07,0x3b,0x0b,0x69,0x00,0x3b,0x0c,0x5b,0x00))
  205(28,bytes(0x04,0x08,0x6f,0x3a,0x13,0x52,0x50,0x47,0x3a,0x3a,0x4d,0x6f,0x76,0x65,0x52,0x6f,0x75,0x74,0x65,0x09,0x3a,0x0c,0x40,0x72,0x65,0x70,0x65,0x61,0x74,0x46,0x3a,0x0f,0x40,0x73,0x6b,0x69,0x70,0x70,0x61,0x62,0x6c,0x65,0x46,0x3a,0x0a,0x40,0x77,0x61,0x69,0x74,0x54,0x3a,0x0a,0x40,0x6c,0x69,0x73,0x74,0x5b,0x0f,0x6f,0x3a,0x15,0x52,0x50,0x47,0x3a,0x3a,0x4d,0x6f,0x76,0x65,0x43,0x6f,0x6d,0x6d,0x61,0x6e,0x64,0x07,0x3a,0x0a,0x40,0x63,0x6f,0x64,0x65,0x69,0x06,0x3a,0x10,0x40,0x70,0x61,0x72,0x61,0x6d,0x65,0x74,0x65,0x72,0x73,0x5b,0x00,0x6f,0x3b,0x0a,0x07,0x3b,0x0b,0x69,0x06,0x3b,0x0c,0x5b,0x00,0x6f,0x3b,0x0a,0x07,0x3b,0x0b,0x69,0x06,0x3b,0x0c,0x5b,0x00,0x6f,0x3b,0x0a,0x07,0x3b,0x0b,0x69,0x06,0x3b,0x0c,0x5b,0x00,0x6f,0x3b,0x0a,0x07,0x3b,0x0b,0x69,0x06,0x3b,0x0c,0x5b,0x00,0x6f,0x3b,0x0a,0x07,0x3b,0x0b,0x69,0x06,0x3b,0x0c,0x5b,0x00,0x6f,0x3b,0x0a,0x07,0x3b,0x0b,0x69,0x06,0x3b,0x0c,0x5b,0x00,0x6f,0x3b,0x0a,0x07,0x3b,0x0b,0x69,0x06,0x3b,0x0c,0x5b,0x00,0x6f,0x3b,0x0a,0x07,0x3b,0x0b,0x69,0x06,0x3b,0x0c,0x5b,0x00,0x6f,0x3b,0x0a,0x07,0x3b,0x0b,0x69,0x00,0x3b,0x0c,0x5b,0x00))
  ChangeSwitch(31,31,1)
  ShowMessageFace("ruka_fc1",0,0,2,54)
  ShowMessage("\\n<Luka>To the inn! Now!")
  If(4,529,0)
   ShowMessageFace("sara_fc1",1,0,2,55)
   ShowMessage("\\n<Sara>Speaking with the Legendary Heinrich feels like a dream.")
   0()
  EndIf()
  If(0,4,0)
   ShowMessageFace("alice_fc5",0,0,2,56)
   ShowMessage("\\n<Alice>...Just to be safe, make sure we're prepared for combat.")
   0()
  EndIf()
  If(0,5,0)
   ShowMessageFace("iriasu_fc4",7,0,2,57)
   ShowMessage("\\n<Ilias>...Do not let your guard down.\nWe should be prepared for combat at any time.")
   0()
  EndIf()
  If(0,6,0)
   ShowMessageFace("sonia_fc2",2,0,2,58)
   ShowMessage("\\n<Sonya>Why's that? You can't possibly be thinking of attacking the Legendary Heinrich.")
   0()
  Else()
   ShowMessageFace("ruka_fc1",0,0,2,59)
   ShowMessage("\\n<Luka>...Why? Did you want to ask Heinrich to spar or something?")
   0()
  EndIf()
  If(0,4,0)
   ShowMessageFace("alice_fc5",0,0,2,60)
   ShowMessage("\\n<Alice>No, but I have a really bad feeling about that mage he's with. I could swear that's Black Alice herself...")
   0()
  EndIf()
  If(0,5,0)
   ShowMessageFace("iriasu_fc4",7,0,2,61)
   ShowMessage("\\n<Ilias>That mage is Black Alice herself, the Monster Lord of this era and Heinrich's arch-enemy.")
   0()
  EndIf()
  If(0,6,0)
   ShowMessageFace("sonia_fc3",7,0,2,62)
   ShowMessage("\\n<Sonya>That means Heinrich is traveling with the very Monster Lord he's planning to kill!? Does he not even realize who she is?")
   0()
  Else()
   ShowMessageFace("ruka_fc1",0,0,2,63)
   ShowMessage("\\n<Luka>Heinrich is traveling with the Monster Lord!?\nWhy on earth would he...")
   0()
  EndIf()
  If(0,4,0)
   ShowMessageFace("alice_fc5",0,0,2,64)
   ShowMessage("\\n<Alice>She's probably just doing it on a lark.\nDeceiving a hero by acting as his companion is in really poor taste, though.")
   0()
  EndIf()
  If(0,5,0)
   ShowMessageFace("iriasu_fc4",7,0,2,65)
   ShowMessage("\\n<Ilias>Black Alice is just playing around with him.\nShe ends up playing with fire, though...")
   0()
  EndIf()
  ShowMessageFace("ruka_fc1",0,0,2,66)
  ShowMessage("\\n<Luka>...All right, I'll be on guard.\nI still can't imagine she'd actually attack us.")
  If(4,295,0)
   ShowMessageFace("cassandra_fc1",5,0,2,67)
   ShowMessage("\\n<Cassandra>I'm looking forward to talking to Black Alice more so than Heinrich.")
   0()
  EndIf()
  ShowMessageFace("",0,0,2,68)
  ShowMessage("We should prepare just in case. Let's get everything in order and then go meet with Heinrich at the inn.")
  241(bytes(0x04,0x08,0x6f,0x3a,0x0d,0x52,0x50,0x47,0x3a,0x3a,0x42,0x47,0x4d,0x08,0x3a,0x0a,0x40,0x6e,0x61,0x6d,0x65,0x49,0x22,0x0a,0x6d,0x75,0x72,0x61,0x32,0x06,0x3a,0x06,0x45,0x54,0x3a,0x0c,0x40,0x76,0x6f,0x6c,0x75,0x6d,0x65,0x69,0x69,0x3a,0x0b,0x40,0x70,0x69,0x74,0x63,0x68,0x69,0x69))
  EndEventProcessing()
  0()
 PAGE   2
  // condition: variable 1069 >= 3
  0()



EVENT   27
 PAGE   1
  // condition: switch 31 is ON
  0()



EVENT   28
 PAGE   1
  // condition: switch 31 is ON
  0()



EVENT   29
 PAGE   1
  // condition: variable 1069 >= 3
  If(1,1069,0,3,0)
   RunCommonEvent(346)
   EndEventProcessing()
   0()
  EndIf()
  If(1,1069,0,4,1)
   If(0,4,0)
    PictureDisplay(5,"80_heinrich_st01",0,0,0,0,100,100,0,0)
    PictureMove(5,null,0,0,0,0,100,100,255,0,30,true)
    ShowMessageFace("heinrich_fc1",7,0,2,1)
    ShowMessage("\\n<Heinrich>Oh, Alicetroemeria...\nAre you sightseeing around the village with these people?")
    ShowMessageFace("alicetromeria_fc1",0,0,2,2)
    ShowMessage("\\n<Alicetroemeria>Yes... Please wait just a little longer.\nI'll be back shortly...ufufu.")
    ShowMessageFace("alice_fc5",0,0,2,3)
    ShowMessage("\\n<Alice>It seems like almost no time has passed here while we were in our world. The flow of time appears to be different between this world and our world.")
    PictureClear(5)
    EndEventProcessing()
    0()
   EndIf()
   0()
  EndIf()
  If(0,5,0)
   If(1,1069,0,4,1)
    If(1,1069,0,5,2)
     PictureDisplay(5,"80_heinrich_st01",0,0,0,0,100,100,0,0)
     PictureMove(5,null,0,0,0,0,100,100,255,0,30,true)
     ShowMessageFace("heinrich_fc1",7,0,2,4)
     ShowMessage("\\n<Heinrich>Oh, you're still here?\nI thought you just left a few minutes ago...")
     ShowMessageFace("iriasu_fc4",2,0,2,5)
     ShowMessage("\\n<Ilias>Almost no time has passed here while we were in our world... It would appear the flow of time differs between this world and ours.")
     PictureClear(5)
     EndEventProcessing()
     0()
    EndIf()
    0()
   EndIf()
   If(1,1069,0,6,0)
    PictureDisplay(5,"80_heinrich_st01",0,0,0,0,100,100,0,0)
    PictureMove(5,null,0,0,0,0,100,100,255,0,30,true)
    ShowMessageFace("heinrich_fc1",7,0,2,6)
    ShowMessage("\\n<Heinrich>アリストロメリアが、ふらりとどこかに行ってしまったよ……")
    ShowMessage("まあ、よくある事なんだけどね。")
    ShowMessageFace("heinrich_fc1",7,0,2,7)
    ShowMessage("\\n<Heinrich>ところで君達、浮かない顔をしているね……")
    ShowMessage("なにか困り事かい？")
    ShowMessageFace("iriasu_fc4",2,0,2,8)
    ShowMessage("\\n<Ilias>いっそ、ハインリヒを仲間に誘ってしまえば手っ取り早いのでは？")
    ShowMessage("彼が同行するとなれば、村長も信頼するでしょう。")
    If(0,2149,0)
     ShowMessageFace("bonny_fc1",1,0,2,9)
     ShowMessage("\\n<Bonnie>伝説の英雄を仲間にするのか！")
     ShowMessage("すごいな！")
     ShowMessageFace("ashel_fc1",1,0,2,10)
     ShowMessage("\\n<Ashel>いっそ、おさかな海賊団に入ってもらえれば……")
     0()
    EndIf()
    If(0,2148,0)
     ShowMessageFace("tatunoko_k_fc1",1,0,2,11)
     ShowMessage("\\n<Tatsuko>伝説の勇者が仲間になるなんて、すごいのです！")
     ShowMessageFace("umiusi_k_fc1",0,0,2,12)
     ShowMessage("\\n<Stacy>とっても頼もしいですね……♪")
     0()
    EndIf()
    ShowMessageFace("ruka_fc1",0,0,2,13)
    ShowMessage("\\n<Luka>.........")
    ShowChoices(strings("ハインリヒを仲間に誘う","特に用はない"),2)
    IfPlayerPicksChoice(0,null)
     ShowMessageFace("iriasu_fc4",0,0,2,14)
     ShowMessage("\\n<Ilias>ハインリヒ、私は女神イリアスです。")
     ShowMessage("さあ、私と一緒に行きますよ。")
     PictureDisplay(5,"80_heinrich_st02",0,0,0,0,100,100,255,0)
     ShowMessageFace("heinrich_fc1",1,0,2,15)
     ShowMessage("\\n<Heinrich>君が、女神イリアスだって……？")
     ShowMessage("確かに似ているけれど、流石にだまされたりはしないよ。")
     ShowMessageFace("iriasu_fc4",0,0,2,16)
     ShowMessage("\\n<Ilias>……つくづくあなたの目は節穴ですね、ダメンリヒ。")
     ShowMessage("これ以上私を失望させるなら、百均で新たな勇者を探しますよ。")
     PictureDisplay(5,"80_heinrich_st04",0,0,0,0,100,100,255,0)
     ShowMessageFace("heinrich_fc1",0,0,2,17)
     ShowMessage("\\n<Heinrich>そのおっしゃりよう……間違いない、本物のイリアス様だ！")
     If(0,6,0)
      ShowMessageFace("sonia_fc4",0,0,2,18)
      ShowMessage("\\n<Sonya>.........")
      0()
     Else()
      ShowMessageFace("ruka_fc1",0,0,2,19)
      ShowMessage("\\n<Luka>.........")
      0()
     EndIf()
     PictureDisplay(5,"80_heinrich_st01",0,0,0,0,100,100,255,0)
     ShowMessageFace("heinrich_fc1",7,0,2,20)
     ShowMessage("\\n<Heinrich>分かりました、ご一緒しましょう。")
     ShowMessage("この剣、あなたのために！")
     PictureClear(5)
     205(0,bytes(0x04,0x08,0x6f,0x3a,0x13,0x52,0x50,0x47,0x3a,0x3a,0x4d,0x6f,0x76,0x65,0x52,0x6f,0x75,0x74,0x65,0x09,0x3a,0x0c,0x40,0x72,0x65,0x70,0x65,0x61,0x74,0x46,0x3a,0x0f,0x40,0x73,0x6b,0x69,0x70,0x70,0x61,0x62,0x6c,0x65,0x46,0x3a,0x0a,0x40,0x77,0x61,0x69,0x74,0x54,0x3a,0x0a,0x40,0x6c,0x69,0x73,0x74,0x5b,0x09,0x6f,0x3a,0x15,0x52,0x50,0x47,0x3a,0x3a,0x4d,0x6f,0x76,0x65,0x43,0x6f,0x6d,0x6d,0x61,0x6e,0x64,0x07,0x3a,0x0a,0x40,0x63,0x6f,0x64,0x65,0x69,0x2a,0x3a,0x10,0x40,0x70,0x61,0x72,0x61,0x6d,0x65,0x74,0x65,0x72,0x73,0x5b,0x00,0x6f,0x3b,0x0a,0x07,0x3b,0x0b,0x69,0x0f,0x3b,0x0c,0x5b,0x00,0x6f,0x3b,0x0a,0x07,0x3b,0x0b,0x69,0x2c,0x3b,0x0c,0x5b,0x00,0x6f,0x3b,0x0a,0x07,0x3b,0x0b,0x69,0x00,0x3b,0x0c,0x5b,0x00))
     355("add_actor_ex(538)")
     249(bytes(0x04,0x08,0x6f,0x3a,0x0c,0x52,0x50,0x47,0x3a,0x3a,0x4d,0x45,0x08,0x3a,0x0a,0x40,0x6e,0x61,0x6d,0x65,0x49,0x22,0x0c,0x66,0x61,0x6e,0x66,0x61,0x6c,0x65,0x06,0x3a,0x06,0x45,0x54,0x3a,0x0b,0x40,0x70,0x69,0x74,0x63,0x68,0x69,0x69,0x3a,0x0c,0x40,0x76,0x6f,0x6c,0x75,0x6d,0x65,0x69,0x69))
     ShowMessageFace("",0,0,2,21)
     ShowMessage("ハインリヒが仲間に加わった！")
     Wait(60)
     ChangeVariable(1069,1069,0,0,7)
     ShowMessageFace("ruka_fc1",0,0,2,22)
     ShowMessage("\\n<Luka>すごいや！　伝説の英雄と共闘できるなんて！")
     ShowMessage("ウォォォォ！　昂ぶってきたぞぉぉ！！")
     If(4,520,0)
      ShowMessageFace("lazarus3_fc1",1,0,2,23)
      ShowMessage("\\n<Lazarus>すっげぇな！　マルケルスに聞かせてやりてぇな！")
      ShowMessage("あいつマジ悔しがるぜ！")
      0()
     EndIf()
     ShowMessageFace("heinrich_fc1",7,0,2,24)
     ShowMessage("\\n<Heinrich>なんだか、照れくさいな……")
     ShowMessage("それに、伝説の英雄なんてほどじゃないよ。")
     If(0,6,0)
      ShowMessageFace("sonia_fc2",2,0,2,25)
      ShowMessage("\\n<Sonya>でも、いいのかなぁ……")
      ShowMessage("並行世界の勇者を、私たちの都合で巻き込んじゃって。")
      0()
     Else()
      ShowMessageFace("ruka_fc1",0,0,2,26)
      ShowMessage("\\n<Luka>でも、冷静に考えるとまずいんじゃないかな……")
      ShowMessage("並行世界の勇者を、僕達の都合で巻き込んじゃって。")
      0()
     EndIf()
     ShowMessageFace("iriasu_fc4",0,0,2,27)
     ShowMessage("\\n<Ilias>ハインリヒ、これから起きることは夢です。")
     ShowMessage("夢の中で、私が試練を与えているのです……分かりますね？")
     ShowMessageFace("heinrich_fc1",1,0,2,28)
     ShowMessage("\\n<Heinrich>分かりました、イリアス様！")
     ShowMessage("夢の中で試練を与えて下さるのですね！")
     ShowMessageFace("iriasu_fc4",1,0,2,29)
     ShowMessage("\\n<Ilias>……ね？　よく調教してあるでしょう。")
     If(0,6,0)
      ShowMessageFace("sonia_fc4",0,0,2,30)
      ShowMessage("\\n<Sonya>.........")
      0()
     Else()
      ShowMessageFace("ruka_fc1",0,0,2,31)
      ShowMessage("\\n<Luka>.........")
      0()
     EndIf()
     ShowMessageFace("iriasu_fc4",0,0,2,32)
     ShowMessage("\\n<Ilias>ハインリヒが一緒なら、村長も文句は言わないでしょう。")
     ShowMessage("さあ、もう一度村長の家に向かいますよ！")
     If(4,185,0)
      ShowMessageFace("radio_fc1",0,0,2,33)
      ShowMessage("\\n<Radio>船に乗りマシょう……")
      0()
     EndIf()
     EndEventProcessing()
     0()
    IfPlayerPicksChoice(1,null)
     ShowMessageFace("heinrich_fc1",7,0,2,34)
     ShowMessage("\\n<Heinrich>そうか……困った事があったら、言ってくれ。")
     ShowMessage("君とは、何か不思議な縁を感じるからね。")
     PictureClear(5)
     EndEventProcessing()
     0()
    404()
    0()
   EndIf()
   0()
  EndIf()
  0()
 PAGE   2
  // condition: switch 5 is ON
  // condition: variable 1069 >= 7
  0()



EVENT   30
 PAGE   1
  // condition: variable 1069 >= 3
  RunCommonEvent(346)
  0()
 PAGE   2
  // condition: switch 4 is ON
  // condition: variable 1069 >= 4
  0()
 PAGE   3
  // condition: switch 5 is ON
  // condition: variable 1069 >= 4
  PictureDisplay(5,"80_alicetromeria_st01",0,0,0,0,100,100,0,0)
  PictureMove(5,null,0,0,0,0,100,100,255,0,30,true)
  ShowMessageFace("alicetromeria_fc1",0,0,2,1)
  ShowMessage("\\n<Alicetroemeria>Ufufu, you're quite mysterious people...")
  ShowMessageFace("iriasu_fc4",7,0,2,2)
  ShowMessage("\\n<Ilias>I won't allow you to talk with him.\nYou will soon be defeated.")
  ShowMessageFace("alicetromeria_fc1",0,0,2,3)
  ShowMessage("\\n<Alicetroemeria>Oh dear, I am loathed...")
  PictureClear(5)
  0()
 PAGE   4
  // condition: switch 5 is ON
  // condition: variable 1069 >= 5
  0()



EVENT   31
 PAGE   1
  If(1,1069,0,4,2)
   ShowMessageFace("",0,0,2,1)
   ShowMessage("\\n<Village Mayor>Thank you very much for driving away the Queen Succubi.\nAside from Heinrich, there are other heroes who are skilled like you.")
   ShowMessageFace("",0,0,2,2)
   ShowMessage("\\n<Village Mayor>Please feel free to rest your bones in this village.\nIf it's okay with you, you may even settle down in this village...")
   0()
  EndIf()
  If(1,1069,0,5,0)
   ShowMessageFace("",0,0,2,3)
   ShowMessage("\\n<村長>クィーンサキュバスを追い払って頂き、ありがとうございました。")
   ShowMessage("ハインリヒの他にも、あなたのような腕の立つ勇者がおられるのですね。")
   ShowMessageFace("",0,0,2,4)
   ShowMessage("\\n<村長>この村で、存分に骨を休めて下さいませ。")
   ShowMessage("よろしければ、このまま村に落ち着いてもよろしいのですよ……")
   ShowChoices(strings("船を貸してほしい","用はない"),2)
   IfPlayerPicksChoice(0,null)
    ShowMessageFace("",0,0,2,5)
    ShowMessage("\\n<村長>村の貿易船を……ですか？")
    ShowMessage("いったい何のために使うのか、お聞きしてもよろしいでしょうか。")
    ShowMessageFace("ruka_fc1",0,0,2,6)
    ShowMessage("\\n<Luka>ヘルゴンド大陸に行きたいんだけど……")
    ShowMessageFace("",0,0,2,7)
    ShowMessage("\\n<村長>それは……申し訳ありませんが、許可は出せません。")
    ShowMessage("あの大陸に渡るなど、あまりにも危険すぎます。")
    ShowMessageFace("",0,0,2,8)
    ShowMessage("\\n<村長>いかにクィーンサキュバスを倒す腕があるとはいえ……")
    ShowMessage("魔王城に乗り込むのは自殺同然、村長として許可できません。")
    ShowMessageFace("ruka_fc1",0,0,2,9)
    ShowMessage("\\n<Luka>困ったなぁ、どうしよう……")
    If(0,4,0)
     ChangeVariable(1069,1069,0,0,8)
     ShowMessageFace("alicetromeria_fc1",3,0,2,10)
     ShowMessage("\\n<Alicetroemeria>私からもお頼みしますわ、村長さん……")
     ShowMessage("私のお顔、忘れたりはしていませんよねぇ……？")
     ShowMessageFace("",0,0,2,11)
     ShowMessage("\\n<村長>まさか……あなたは、そんな――！")
     ShowMessageFace("alicetromeria_fc1",3,0,2,12)
     ShowMessage("\\n<Alicetroemeria>余計な言葉は不要ですの……")
     ShowMessage("欲しいのは、船の使用許可だけ。")
     ShowMessageFace("",0,0,2,13)
     ShowMessage("\\n<村長>それは、もちろん……ご自由にお使い下さい。")
     ShowMessageFace("alicetromeria_fc1",0,0,2,14)
     ShowMessage("\\n<Alicetroemeria>うふふっ、許可が出ましたわ……")
     ShowMessage("さあ皆さん、さっそく船に乗り込みましょう。")
     ShowMessageFace("alice_fc5",0,0,2,15)
     ShowMessage("\\n<Alice>.........")
     TeleportPlayer(0,514,48,32,2,0)
     EndEventProcessing()
     0()
    EndIf()
    If(0,5,0)
     ChangeVariable(1069,1069,0,0,6)
     ShowMessageFace("iriasu_fc4",2,0,2,16)
     ShowMessage("\\n<Ilias>信頼できる者に相談してみるのはどうでしょう。")
     ShowMessage("ちょうどこの村にいますね、あなたが大いに信頼している者が……")
     0()
    EndIf()
    EndEventProcessing()
    0()
   IfPlayerPicksChoice(1,null)
    EndEventProcessing()
    0()
   404()
   0()
  EndIf()
  If(1,1069,0,6,0)
   ShowMessageFace("",0,0,2,17)
   ShowMessage("\\n<村長>申し訳ありませんが、出航の許可は出せません。")
   ShowMessage("あの大陸に渡るなど、あまりにも危険すぎます。")
   ShowMessageFace("",0,0,2,18)
   ShowMessage("\\n<村長>いかにクィーンサキュバスを倒す腕があるとはいえ……")
   ShowMessage("魔王城に乗り込むのは自殺同然、村長として許可できません。")
   ShowMessageFace("ruka_fc1",0,0,2,19)
   ShowMessage("\\n<Luka>困ったなぁ、どうしよう……")
   ShowMessageFace("iriasu_fc4",2,0,2,20)
   ShowMessage("\\n<Ilias>信頼できる者に相談してみるのはどうでしょう。")
   ShowMessage("ちょうどこの村にいますね、あなたが大いに信頼している者が……")
   EndEventProcessing()
   0()
  EndIf()
  If(1,1069,0,7,0)
   ShowMessageFace("",0,0,2,21)
   ShowMessage("\\n<村長>申し訳ありませんが、出航の許可は出せません。")
   ShowMessage("あの大陸に渡るなど、あまりにも危険すぎます。")
   ShowMessageFace("heinrich_fc1",1,0,2,22)
   ShowMessage("\\n<Heinrich>僕も一緒に行くよ。")
   ShowMessage("なんとか、お願いできないかな……？")
   ShowMessageFace("",0,0,2,23)
   ShowMessage("\\n<村長>そうですか、勇者ハインリヒ様も一緒に……")
   ShowMessageFace("",0,0,2,24)
   ShowMessage("\\n<村長>ならば、断ることは出来ませんね。")
   ShowMessage("村の貿易船、どうぞ使って下さいませ。")
   ShowMessageFace("ruka_fc1",0,0,2,25)
   ShowMessage("\\n<Luka>村長さん、ありがとうございます！")
   ShowMessageFace("iriasu_fc4",1,0,2,26)
   ShowMessage("\\n<Ilias>上手くいきましたね。")
   ShowMessage("それでは、さっそく船に乗り込みましょう！")
   ChangeVariable(1069,1069,0,0,8)
   TeleportPlayer(0,514,48,32,2,0)
   EndEventProcessing()
   0()
  EndIf()
  If(1,1069,0,8,1)
   ShowMessageFace("",0,0,2,27)
   ShowMessage("\\n<村長>船はご自由にお使い下さい。")
   ShowMessage("どうか、ご武運のあらんことを……")
   EndEventProcessing()
   0()
  EndIf()
  0()



EVENT   32
 PAGE   1
  ShowMessageFace("",0,0,2,1)
  ShowMessage("\\n<Mayor's Secretary>The village mayor adheres to a motto of frugality.\nIn this way, she leads a life away from extravagant luxury.")
  355("actor_label_jump")
  EndEventProcessing()
  DefineLabel("143")
  ShowMessageFace("eva_fc1",2,0,2,2)
  ShowMessage("\\n<Eva>I wonder when the potatoes landed in this village...")
  EndEventProcessing()
  0()



EVENT   33
 PAGE   1
  ShowMessageFace("",0,0,2,1)
  ShowMessage("\\n<Traveling Hero>Heinrich is rumored to be in the room next door...\nI wonder if I should greet him for a bit?")
  355("actor_label_jump")
  EndEventProcessing()
  DefineLabel("538")
  ShowMessageFace("heinrich_fc1",7,0,2,2)
  ShowMessage("\\n<Heinrich>I don't need a greeting, I'll be away for a little while...")
  EndEventProcessing()
  0()



EVENT   34
 PAGE   1
  ShowMessageFace("",0,0,2,1)
  ShowMessage("\\n<Traveling Monk>Ah, Heinrich...\nI wonder if I could ask you to add me to your group...?")
  355("actor_label_jump")
  ShowMessageFace("",0,0,2,2)
  ShowMessage("\\n<Traveling Hero>...Huh?")
  EndEventProcessing()
  DefineLabel("45")
  ShowMessageFace("alicetromeria_fc1",4,0,2,3)
  ShowMessage("\\n<Alicetroemeria>He doesn't need another friend...\nHe has me to fight the loneliness.")
  EndEventProcessing()
  DefineLabel("538")
  ShowMessageFace("heinrich_fc1",7,0,2,4)
  ShowMessage("\\n<Heinrich>I'm sorry, but it's easier to travel with just Alicetroemeria and myself.")
  EndEventProcessing()
  0()



EVENT   35
 PAGE   1
  ShowMessageFace("",0,0,2,1)
  ShowMessage("\\n<Arms Vendor>Welcome...\nWe're a peaceful village, but we deal in powerful equipment.")
  Shop(1,23,0,0,false)
  605(1,248,0,0)
  605(1,880,0,0)
  605(2,25,0,0)
  605(2,170,0,0)
  0()



EVENT   36
 PAGE   1
  ShowMessageFace("",0,0,2,1)
  ShowMessage("\\n<Innkeeper's Daughter>Our inn has a reputation for seeing lewd dreams.\nWill you stay the night for 50G?\\$")
  ShowChoices(strings("Yes","No"),2)
  IfPlayerPicksChoice(0,null)
   If(7,50,0)
    If(0,6,0)
     ShowMessageFace("sonia_fc1",2,0,2,2)
     ShowMessage("\\n<Sonya>Th-the service of a lewd dream is wonderful.")
     0()
    EndIf()
    125(1,0,50)
    221()
    249(bytes(0x04,0x08,0x6f,0x3a,0x0c,0x52,0x50,0x47,0x3a,0x3a,0x4d,0x45,0x08,0x3a,0x0a,0x40,0x6e,0x61,0x6d,0x65,0x49,0x22,0x08,0x49,0x6e,0x6e,0x06,0x3a,0x06,0x45,0x54,0x3a,0x0b,0x40,0x70,0x69,0x74,0x63,0x68,0x69,0x69,0x3a,0x0c,0x40,0x76,0x6f,0x6c,0x75,0x6d,0x65,0x69,0x69))
    Wait(150)
    314(0,0)
    222()
    0()
   Else()
    ShowMessageFace("",0,0,2,3)
    ShowMessage("\\n<Innkeeper's Daughter>Oh, you don't have enough money...")
    0()
   EndIf()
   0()
  IfPlayerPicksChoice(1,null)
   0()
  404()
  EndEventProcessing()
  0()



EVENT   37
 PAGE   1
  ShowMessageFace("",0,0,2,1)
  ShowMessage("\\n<Soldier>If you stay at this inn, it's rumored you will see lewd dreams. It's a bit expensive, but they still get a lot of repeat customers.")
  0()



EVENT   38
 PAGE   1
  ShowMessageFace("",0,0,2,1)
  ShowMessage("\\n<Traveling Hero>These are such dark times...\nI at least want to see some good dreams...")
  355("actor_label_jump")
  EndEventProcessing()
  DefineLabel("75")
  ShowMessageFace("hituzi_fc1",3,0,2,2)
  ShowMessage("\\n<Mary>I have to drink alcohol or I won't have any...")
  EndEventProcessing()
  0()



EVENT   39
 PAGE   1
  ShowMessageFace("",0,0,2,1)
  ShowMessage("\\n<Traveling Hero>I had an amazing dream last night.  Three succubi were...\n...I've decided to stay for another night.")
  355("actor_label_jump")
  EndEventProcessing()
  DefineLabel("281")
  ShowMessageFace("succubuses_fc1",0,0,2,2)
  ShowMessage("\\n<Harem>There will be four succubi next...")
  EndEventProcessing()
  0()



EVENT   40
 PAGE   1
  ShowMessageFace("",0,0,2,1)
  ShowMessage("\\n<Village Woman>The hero Heinrich is upstairs...*thump-thump*...")
  355("actor_label_jump")
  EndEventProcessing()
  DefineLabel("538")
  ShowMessageFace("heinrich_fc1",7,0,2,2)
  ShowMessage("\\n<Heinrich>Excuse me, I'm right here...")
  EndEventProcessing()
  0()



EVENT   41
 PAGE   1
  ShowMessageFace("",0,0,2,1)
  ShowMessage("\\n<Thug>Ever since the raid, I've thought about buying a weapon for a little self-protection... Everyone else has been thinking the same.")
  0()



EVENT   42
 PAGE   1
  ShowMessageFace("",0,0,2,1)
  ShowMessage("\\n<Village Woman>Weapons are barbaric, but...\nI can't say that after something like this.")
  0()



EVENT   43
 PAGE   1
  ShowMessageFace("",0,0,2,1)
  ShowMessage("\\n<Noblewoman>The succubus queens attacked this village...\nHave they forgotten about the nonaggression pact in these turbulent times?")
  ShowMessageFace("",0,0,2,2)
  ShowMessage("\\n<Noblewoman>Don't mind me, just talking to myself...")
  355("actor_label_jump")
  EndEventProcessing()
  DefineLabel("341")
  ShowMessageFace("lilith_fc1",0,0,2,3)
  ShowMessage("\\n<Lilith & Lilim>We weren't attacking...\nWe just came to have a snack.")
  EndEventProcessing()
  0()



EVENT   44
 PAGE   1
  ShowMessageFace("",0,0,2,1)
  ShowMessage("\\n<Guard>I should buy some brand-new armor...\nThese are dangerous times, after all.")
  0()



EVENT   45
 PAGE   1
  ShowMessageFace("",0,0,2,1)
  ShowMessage("\\n<Guard>Thinking about it again...\nIt's been far too peaceful here even though it's the closest village to the Monster Lord's Castle.")
  ShowMessageFace("",0,0,2,2)
  ShowMessage("\\n<Guard>It's not that it was being purposely overlooked, it's that there never was an enemy invasion. This incident woke me up.")
  355("actor_label_jump")
  EndEventProcessing()
  DefineLabel("45")
  ShowMessageFace("alicetromeria_fc1",4,0,2,3)
  ShowMessage("\\n<Alicetroemeria>I've been overlooking it on purpose...")
  EndEventProcessing()
  0()



EVENT   46
 PAGE   1
  ShowMessageFace("",0,0,2,1)
  ShowMessage("\\n<Man>In any case, a knife is a good first...\nAssassin's Dagger?!　What's that? It sounds really dreadful.")
  0()



EVENT   47
 PAGE   1
  ShowMessageFace("",0,0,2,1)
  ShowMessage("\\n<Middle-age Man>The weapons being sold in this store are a bit too advanced... An amateur like me wouldn't be able to handle them.")
  0()



EVENT   48
 PAGE   1
  ShowMessageFace("",0,0,2,1)
  ShowMessage("\\n<Young Wife>We were supposed to be neutral...\nDoes the Queen Succubi's raid signify a declaration of war from the Monster Lord?")
  0()



EVENT   49
 PAGE   1
  ShowMessageFace("",0,0,2,1)
  ShowMessage("\\n<Young Husband>I heard it from my wife, but most of the women in this village are actually...\n...Oops, don't mind me.")
  355("actor_label_jump")
  EndEventProcessing()
  DefineLabel("287")
  ShowMessageFace("succubus_fc1",0,0,2,2)
  ShowMessage("\\n<Succubus>Please take good care of your wife...")
  EndEventProcessing()
  0()



EVENT   50
 PAGE   1
  ShowMessageFace("",0,0,2,1)
  ShowMessage("\\n<Young Lady>Everyone in this village just wants peace and coexistence.\nI have no intention of causing trouble for anyone..")
  ShowMessageFace("",0,0,2,2)
  ShowMessage("\\n<Young Lady>And yet, the current Monster Lord...\nWhy is she disrupting the peace...?")
  355("actor_label_jump")
  EndEventProcessing()
  DefineLabel("45")
  ShowMessageFace("alicetromeria_fc1",4,0,2,3)
  ShowMessage("\\n<Alicetroemeria>A tea party isn't interesting if it's not clamorous...")
  EndEventProcessing()
  0()



EVENT   51
 PAGE   1
  ShowMessageFace("",0,0,2,1)
  ShowMessage("\\n<Young Lady>You're the hero who drove away the Queen Succubi...!\nWon't you please stay at this house?")
  ShowMessageFace("",0,0,2,2)
  ShowMessage("\\n<Young Lady>Alone for a night, four nights if you're able to...")
  0()



EVENT   52
 PAGE   1
  ShowMessageFace("",0,0,2,1)
  ShowMessage("\\n<Young Lady>I love strong, lively men...\nSo please stay in this village for a long time.")
  ShowMessageFace("",0,0,2,2)
  ShowMessage("\\n<Young Lady>If you want, you can live in this village...\nNo, I won't mind it at all if you live in this house.")
  355("actor_label_jump")
  EndEventProcessing()
  DefineLabel("281")
  ShowMessageFace("succubuses_fc1",0,0,2,3)
  ShowMessage("\\n<Harem>This looks like a harem too. ♪")
  EndEventProcessing()
  0()



EVENT   53
 PAGE   1
  ShowMessageFace("",0,0,2,1)
  ShowMessage("\\n<Young Lady>You're very strong aren't you...\nHeinrich is also nice, but I prefer you...♪")
  0()



EVENT   54
 PAGE   1
  ShowMessageFace("",0,0,2,1)
  ShowMessage("\\n<Bunny>Welcooome! ♪")
  0()



EVENT   55
 PAGE   1
  ShowMessageFace("",0,0,2,1)
  ShowMessage("\\n<Traveling Hero>If you have no countermeasures for status abnormalities, you'll be melting in love against an opposing succubus. I've been incontinent while being seduced, soaking in a trance, and feeling horny.")
  ShowMessageFace("",0,0,2,2)
  ShowMessage("\\n<Traveling Hero>I'd like to experience that once more...")
  355("actor_label_jump")
  EndEventProcessing()
  DefineLabel("241")
  ShowMessageFace("a_emp_fc1",2,0,2,3)
  ShowMessage("\\n<Priestess>You're the worst...")
  EndEventProcessing()
  DefineLabel("242")
  ShowMessageFace("a_emp_fc1",4,0,2,4)
  ShowMessage("\\n<Priestess>Are you wetting yourself in front of me...?")
  EndEventProcessing()
  0()



EVENT   56
 PAGE   1
  ShowMessageFace("",0,0,2,1)
  ShowMessage("\\n<Young Lady>Even though the effects are amazing, it's lacking in design...")
  355("actor_label_jump")
  EndEventProcessing()
  DefineLabel("290")
  ShowMessageFace("madaminsect_fc1",0,0,2,2)
  ShowMessage("\\n<Sylvia>Design is important, is it not...?\nI cannot wear outfits such as tasteless armor.")
  EndEventProcessing()
  0()



EVENT   57
 PAGE   1
  ShowMessageFace("",0,0,2,1)
  ShowMessage("\\n<Traveling Hero>I'm stocking up on as many items as I can carry before heading to the Monster Lord's Castle. Somebody else might defeat her while I'm here, though...")
  355("actor_label_jump")
  EndEventProcessing()
  DefineLabel("45")
  ShowMessageFace("alicetromeria_fc1",4,0,2,2)
  ShowMessage("\\n<Alicetroemeria>No one thinks you have a chance anyway...")
  EndEventProcessing()
  DefineLabel("538")
  ShowMessageFace("heinrich_fc1",7,0,2,3)
  ShowMessage("\\n<Heinrich>Leave it to me!")
  EndEventProcessing()
  0()



EVENT   58
 PAGE   1
  250(bytes(0x04,0x08,0x6f,0x3a,0x0c,0x52,0x50,0x47,0x3a,0x3a,0x53,0x45,0x08,0x3a,0x0a,0x40,0x6e,0x61,0x6d,0x65,0x49,0x22,0x0a,0x49,0x74,0x65,0x6d,0x31,0x06,0x3a,0x06,0x45,0x54,0x3a,0x0b,0x40,0x70,0x69,0x74,0x63,0x68,0x69,0x69,0x3a,0x0c,0x40,0x76,0x6f,0x6c,0x75,0x6d,0x65,0x69,0x55))
  ChangeSelfSwitch("A",0)
  ChangeInventory_Item(73,0,0,1)
  0()
 PAGE   2
  // condition: self-switch A is ON
  0()



EVENT   59
 PAGE   1
  250(bytes(0x04,0x08,0x6f,0x3a,0x0c,0x52,0x50,0x47,0x3a,0x3a,0x53,0x45,0x08,0x3a,0x0a,0x40,0x6e,0x61,0x6d,0x65,0x49,0x22,0x0a,0x49,0x74,0x65,0x6d,0x31,0x06,0x3a,0x06,0x45,0x54,0x3a,0x0b,0x40,0x70,0x69,0x74,0x63,0x68,0x69,0x69,0x3a,0x0c,0x40,0x76,0x6f,0x6c,0x75,0x6d,0x65,0x69,0x55))
  ChangeSelfSwitch("A",0)
  ChangeInventory_Item(23,0,0,1)
  0()
 PAGE   2
  // condition: self-switch A is ON
  0()



EVENT   60
 PAGE   1
  250(bytes(0x04,0x08,0x6f,0x3a,0x0c,0x52,0x50,0x47,0x3a,0x3a,0x53,0x45,0x08,0x3a,0x0a,0x40,0x6e,0x61,0x6d,0x65,0x49,0x22,0x0a,0x49,0x74,0x65,0x6d,0x31,0x06,0x3a,0x06,0x45,0x54,0x3a,0x0b,0x40,0x70,0x69,0x74,0x63,0x68,0x69,0x69,0x3a,0x0c,0x40,0x76,0x6f,0x6c,0x75,0x6d,0x65,0x69,0x55))
  ChangeSelfSwitch("A",0)
  ChangeInventory_Item(15,0,0,1)
  0()
 PAGE   2
  // condition: self-switch A is ON
  0()



EVENT   61
 PAGE   1
  250(bytes(0x04,0x08,0x6f,0x3a,0x0c,0x52,0x50,0x47,0x3a,0x3a,0x53,0x45,0x08,0x3a,0x0a,0x40,0x6e,0x61,0x6d,0x65,0x49,0x22,0x0a,0x49,0x74,0x65,0x6d,0x31,0x06,0x3a,0x06,0x45,0x54,0x3a,0x0b,0x40,0x70,0x69,0x74,0x63,0x68,0x69,0x69,0x3a,0x0c,0x40,0x76,0x6f,0x6c,0x75,0x6d,0x65,0x69,0x55))
  ChangeSelfSwitch("A",0)
  ChangeInventory_Item(343,0,0,1)
  0()
 PAGE   2
  // condition: self-switch A is ON
  0()



EVENT   62
 PAGE   1
  250(bytes(0x04,0x08,0x6f,0x3a,0x0c,0x52,0x50,0x47,0x3a,0x3a,0x53,0x45,0x08,0x3a,0x0a,0x40,0x6e,0x61,0x6d,0x65,0x49,0x22,0x0a,0x49,0x74,0x65,0x6d,0x31,0x06,0x3a,0x06,0x45,0x54,0x3a,0x0b,0x40,0x70,0x69,0x74,0x63,0x68,0x69,0x69,0x3a,0x0c,0x40,0x76,0x6f,0x6c,0x75,0x6d,0x65,0x69,0x55))
  ChangeSelfSwitch("A",0)
  ChangeInventory_Item(342,0,0,1)
  0()
 PAGE   2
  // condition: self-switch A is ON
  0()



EVENT   63
 PAGE   1
  250(bytes(0x04,0x08,0x6f,0x3a,0x0c,0x52,0x50,0x47,0x3a,0x3a,0x53,0x45,0x08,0x3a,0x0a,0x40,0x6e,0x61,0x6d,0x65,0x49,0x22,0x0a,0x49,0x74,0x65,0x6d,0x31,0x06,0x3a,0x06,0x45,0x54,0x3a,0x0b,0x40,0x70,0x69,0x74,0x63,0x68,0x69,0x69,0x3a,0x0c,0x40,0x76,0x6f,0x6c,0x75,0x6d,0x65,0x69,0x55))
  ChangeSelfSwitch("A",0)
  ChangeInventory_Item(12,0,0,1)
  0()
 PAGE   2
  // condition: self-switch A is ON
  0()



EVENT   64
 PAGE   1
  250(bytes(0x04,0x08,0x6f,0x3a,0x0c,0x52,0x50,0x47,0x3a,0x3a,0x53,0x45,0x08,0x3a,0x0a,0x40,0x6e,0x61,0x6d,0x65,0x49,0x22,0x0a,0x49,0x74,0x65,0x6d,0x31,0x06,0x3a,0x06,0x45,0x54,0x3a,0x0b,0x40,0x70,0x69,0x74,0x63,0x68,0x69,0x69,0x3a,0x0c,0x40,0x76,0x6f,0x6c,0x75,0x6d,0x65,0x69,0x55))
  ChangeSelfSwitch("A",0)
  ChangeInventory_Item(31,0,0,1)
  0()
 PAGE   2
  // condition: self-switch A is ON
  0()



EVENT   65
 PAGE   1
  250(bytes(0x04,0x08,0x6f,0x3a,0x0c,0x52,0x50,0x47,0x3a,0x3a,0x53,0x45,0x08,0x3a,0x0a,0x40,0x6e,0x61,0x6d,0x65,0x49,0x22,0x0a,0x49,0x74,0x65,0x6d,0x31,0x06,0x3a,0x06,0x45,0x54,0x3a,0x0b,0x40,0x70,0x69,0x74,0x63,0x68,0x69,0x69,0x3a,0x0c,0x40,0x76,0x6f,0x6c,0x75,0x6d,0x65,0x69,0x55))
  ChangeSelfSwitch("A",0)
  ChangeInventory_Item(105,0,0,1)
  0()
 PAGE   2
  // condition: self-switch A is ON
  0()



EVENT   66
 PAGE   1
  250(bytes(0x04,0x08,0x6f,0x3a,0x0c,0x52,0x50,0x47,0x3a,0x3a,0x53,0x45,0x08,0x3a,0x0a,0x40,0x6e,0x61,0x6d,0x65,0x49,0x22,0x0a,0x49,0x74,0x65,0x6d,0x31,0x06,0x3a,0x06,0x45,0x54,0x3a,0x0b,0x40,0x70,0x69,0x74,0x63,0x68,0x69,0x69,0x3a,0x0c,0x40,0x76,0x6f,0x6c,0x75,0x6d,0x65,0x69,0x55))
  ChangeSelfSwitch("A",0)
  ChangeInventory_Item(53,0,0,1)
  0()
 PAGE   2
  // condition: self-switch A is ON
  0()



EVENT   67
 PAGE   1
  // condition: variable 1069 >= 1
  241(bytes(0x04,0x08,0x6f,0x3a,0x0d,0x52,0x50,0x47,0x3a,0x3a,0x42,0x47,0x4d,0x08,0x3a,0x0a,0x40,0x6e,0x61,0x6d,0x65,0x49,0x22,0x0a,0x6b,0x69,0x6b,0x69,0x31,0x06,0x3a,0x06,0x45,0x54,0x3a,0x0c,0x40,0x76,0x6f,0x6c,0x75,0x6d,0x65,0x69,0x69,0x3a,0x0b,0x40,0x70,0x69,0x74,0x63,0x68,0x69,0x69))
  TemporaryRemoveEvent()
  0()
 PAGE   2
  // condition: variable 1069 >= 3
  241(bytes(0x04,0x08,0x6f,0x3a,0x0d,0x52,0x50,0x47,0x3a,0x3a,0x42,0x47,0x4d,0x08,0x3a,0x0a,0x40,0x6e,0x61,0x6d,0x65,0x49,0x22,0x0a,0x6b,0x69,0x6b,0x69,0x31,0x06,0x3a,0x06,0x45,0x54,0x3a,0x0c,0x40,0x76,0x6f,0x6c,0x75,0x6d,0x65,0x69,0x69,0x3a,0x0b,0x40,0x70,0x69,0x74,0x63,0x68,0x69,0x69))
  0()
